^C:\USERS\MOHAMMAD\DOCUMENTS\VISUAL STUDIO 2017\PROJECTS\VULKANTEST\VULKANTEST\SOURCE.CPP
D:\PROGRAM FILES (X86)\MICROSOFT VISUAL STUDIO\2017\COMMUNITY\VC\TOOLS\MSVC\14.14.26428\BIN\HOSTX86\X64\1033\CLUI.DLL
C:\WINDOWS\GLOBALIZATION\SORTING\SORTDEFAULT.NLS
C:\WINDOWS\SYSTEM32\TZRES.DLL
C:\USERS\MOHAMMAD\DOCUMENTS\VISUAL STUDIO 2015\LIBRARIES\GLFW-3.2.1.BIN.WIN64\INCLUDE\GLFW\GLFW3.H
C:\PROGRAM FILES (X86)\WINDOWS KITS\10\INCLUDE\10.0.17134.0\UCRT\STDDEF.H
C:\PROGRAM FILES (X86)\WINDOWS KITS\10\INCLUDE\10.0.17134.0\UCRT\CORECRT.H
D:\PROGRAM FILES (X86)\MICROSOFT VISUAL STUDIO\2017\COMMUNITY\VC\TOOLS\MSVC\14.14.26428\INCLUDE\VCRUNTIME.H
D:\PROGRAM FILES (X86)\MICROSOFT VISUAL STUDIO\2017\COMMUNITY\VC\TOOLS\MSVC\14.14.26428\INCLUDE\SAL.H
D:\PROGRAM FILES (X86)\MICROSOFT VISUAL STUDIO\2017\COMMUNITY\VC\TOOLS\MSVC\14.14.26428\INCLUDE\CONCURRENCYSAL.H
D:\PROGRAM FILES (X86)\MICROSOFT VISUAL STUDIO\2017\COMMUNITY\VC\TOOLS\MSVC\14.14.26428\INCLUDE\VADEFS.H
D:\PROGRAM FILES (X86)\MICROSOFT VISUAL STUDIO\2017\COMMUNITY\VC\TOOLS\MSVC\14.14.26428\INCLUDE\STDINT.H
D:\VULKANSDK\1.1.73.0\INCLUDE\VULKAN\VULKAN.H
D:\VULKANSDK\1.1.73.0\INCLUDE\VULKAN\VK_PLATFORM.H
D:\VULKANSDK\1.1.73.0\INCLUDE\VULKAN\VULKAN_CORE.H
C:\USERS\MOHAMMAD\DOCUMENTS\VISUAL STUDIO 2015\LIBRARIES\GLM\GLM\VEC4.HPP
C:\USERS\MOHAMMAD\DOCUMENTS\VISUAL STUDIO 2015\LIBRARIES\GLM\GLM\DETAIL\SETUP.HPP
D:\PROGRAM FILES (X86)\MICROSOFT VISUAL STUDIO\2017\COMMUNITY\VC\TOOLS\MSVC\14.14.26428\INCLUDE\CASSERT
D:\PROGRAM FILES (X86)\MICROSOFT VISUAL STUDIO\2017\COMMUNITY\VC\TOOLS\MSVC\14.14.26428\INCLUDE\YVALS.H
D:\PROGRAM FILES (X86)\MICROSOFT VISUAL STUDIO\2017\COMMUNITY\VC\TOOLS\MSVC\14.14.26428\INCLUDE\XKEYCHECK.H
D:\PROGRAM FILES (X86)\MICROSOFT VISUAL STUDIO\2017\COMMUNITY\VC\TOOLS\MSVC\14.14.26428\INCLUDE\CRTDEFS.H
D:\PROGRAM FILES (X86)\MICROSOFT VISUAL STUDIO\2017\COMMUNITY\VC\TOOLS\MSVC\14.14.26428\INCLUDE\USE_ANSI.H
C:\PROGRAM FILES (X86)\WINDOWS KITS\10\INCLUDE\10.0.17134.0\UCRT\ASSERT.H
D:\PROGRAM FILES (X86)\MICROSOFT VISUAL STUDIO\2017\COMMUNITY\VC\TOOLS\MSVC\14.14.26428\INCLUDE\CSTDDEF
D:\PROGRAM FILES (X86)\MICROSOFT VISUAL STUDIO\2017\COMMUNITY\VC\TOOLS\MSVC\14.14.26428\INCLUDE\XTR1COMMON
C:\USERS\MOHAMMAD\DOCUMENTS\VISUAL STUDIO 2015\LIBRARIES\GLM\GLM\SIMD\PLATFORM.H
D:\PROGRAM FILES (X86)\MICROSOFT VISUAL STUDIO\2017\COMMUNITY\VC\TOOLS\MSVC\14.14.26428\INCLUDE\EMMINTRIN.H
D:\PROGRAM FILES (X86)\MICROSOFT VISUAL STUDIO\2017\COMMUNITY\VC\TOOLS\MSVC\14.14.26428\INCLUDE\XMMINTRIN.H
D:\PROGRAM FILES (X86)\MICROSOFT VISUAL STUDIO\2017\COMMUNITY\VC\TOOLS\MSVC\14.14.26428\INCLUDE\MMINTRIN.H
C:\PROGRAM FILES (X86)\WINDOWS KITS\10\INCLUDE\10.0.17134.0\UCRT\MALLOC.H
C:\PROGRAM FILES (X86)\WINDOWS KITS\10\INCLUDE\10.0.17134.0\UCRT\CORECRT_MALLOC.H
C:\USERS\MOHAMMAD\DOCUMENTS\VISUAL STUDIO 2015\LIBRARIES\GLM\GLM\DETAIL\TYPE_VEC4.HPP
C:\USERS\MOHAMMAD\DOCUMENTS\VISUAL STUDIO 2015\LIBRARIES\GLM\GLM\DETAIL\TYPE_VEC.HPP
C:\USERS\MOHAMMAD\DOCUMENTS\VISUAL STUDIO 2015\LIBRARIES\GLM\GLM\DETAIL\QUALIFIER.HPP
C:\USERS\MOHAMMAD\DOCUMENTS\VISUAL STUDIO 2015\LIBRARIES\GLM\GLM\DETAIL\TYPE_INT.HPP
D:\PROGRAM FILES (X86)\MICROSOFT VISUAL STUDIO\2017\COMMUNITY\VC\TOOLS\MSVC\14.14.26428\INCLUDE\TYPE_TRAITS
D:\PROGRAM FILES (X86)\MICROSOFT VISUAL STUDIO\2017\COMMUNITY\VC\TOOLS\MSVC\14.14.26428\INCLUDE\XSTDDEF
D:\PROGRAM FILES (X86)\MICROSOFT VISUAL STUDIO\2017\COMMUNITY\VC\TOOLS\MSVC\14.14.26428\INCLUDE\CSTDLIB
C:\PROGRAM FILES (X86)\WINDOWS KITS\10\INCLUDE\10.0.17134.0\UCRT\STDLIB.H
C:\PROGRAM FILES (X86)\WINDOWS KITS\10\INCLUDE\10.0.17134.0\UCRT\CORECRT_SEARCH.H
C:\PROGRAM FILES (X86)\WINDOWS KITS\10\INCLUDE\10.0.17134.0\UCRT\CORECRT_WSTDLIB.H
D:\PROGRAM FILES (X86)\MICROSOFT VISUAL STUDIO\2017\COMMUNITY\VC\TOOLS\MSVC\14.14.26428\INCLUDE\LIMITS.H
C:\PROGRAM FILES (X86)\WINDOWS KITS\10\INCLUDE\10.0.17134.0\UCRT\MATH.H
C:\PROGRAM FILES (X86)\WINDOWS KITS\10\INCLUDE\10.0.17134.0\UCRT\CORECRT_MATH.H
D:\PROGRAM FILES (X86)\MICROSOFT VISUAL STUDIO\2017\COMMUNITY\VC\TOOLS\MSVC\14.14.26428\INCLUDE\INITIALIZER_LIST
D:\PROGRAM FILES (X86)\MICROSOFT VISUAL STUDIO\2017\COMMUNITY\VC\TOOLS\MSVC\14.14.26428\INCLUDE\CSTDINT
C:\USERS\MOHAMMAD\DOCUMENTS\VISUAL STUDIO 2015\LIBRARIES\GLM\GLM\DETAIL\COMPUTE_VECTOR_RELATIONAL.HPP
D:\PROGRAM FILES (X86)\MICROSOFT VISUAL STUDIO\2017\COMMUNITY\VC\TOOLS\MSVC\14.14.26428\INCLUDE\CSTRING
C:\PROGRAM FILES (X86)\WINDOWS KITS\10\INCLUDE\10.0.17134.0\UCRT\STRING.H
C:\PROGRAM FILES (X86)\WINDOWS KITS\10\INCLUDE\10.0.17134.0\UCRT\CORECRT_MEMORY.H
C:\PROGRAM FILES (X86)\WINDOWS KITS\10\INCLUDE\10.0.17134.0\UCRT\CORECRT_MEMCPY_S.H
C:\PROGRAM FILES (X86)\WINDOWS KITS\10\INCLUDE\10.0.17134.0\UCRT\ERRNO.H
D:\PROGRAM FILES (X86)\MICROSOFT VISUAL STUDIO\2017\COMMUNITY\VC\TOOLS\MSVC\14.14.26428\INCLUDE\VCRUNTIME_STRING.H
C:\PROGRAM FILES (X86)\WINDOWS KITS\10\INCLUDE\10.0.17134.0\UCRT\CORECRT_WSTRING.H
D:\PROGRAM FILES (X86)\MICROSOFT VISUAL STUDIO\2017\COMMUNITY\VC\TOOLS\MSVC\14.14.26428\INCLUDE\LIMITS
D:\PROGRAM FILES (X86)\MICROSOFT VISUAL STUDIO\2017\COMMUNITY\VC\TOOLS\MSVC\14.14.26428\INCLUDE\YMATH.H
D:\PROGRAM FILES (X86)\MICROSOFT VISUAL STUDIO\2017\COMMUNITY\VC\TOOLS\MSVC\14.14.26428\INCLUDE\CFLOAT
C:\PROGRAM FILES (X86)\WINDOWS KITS\10\INCLUDE\10.0.17134.0\UCRT\FLOAT.H
D:\PROGRAM FILES (X86)\MICROSOFT VISUAL STUDIO\2017\COMMUNITY\VC\TOOLS\MSVC\14.14.26428\INCLUDE\CLIMITS
D:\PROGRAM FILES (X86)\MICROSOFT VISUAL STUDIO\2017\COMMUNITY\VC\TOOLS\MSVC\14.14.26428\INCLUDE\CMATH
D:\PROGRAM FILES (X86)\MICROSOFT VISUAL STUDIO\2017\COMMUNITY\VC\TOOLS\MSVC\14.14.26428\INCLUDE\XTGMATH.H
D:\PROGRAM FILES (X86)\MICROSOFT VISUAL STUDIO\2017\COMMUNITY\VC\TOOLS\MSVC\14.14.26428\INCLUDE\CWCHAR
C:\PROGRAM FILES (X86)\WINDOWS KITS\10\INCLUDE\10.0.17134.0\UCRT\WCHAR.H
C:\PROGRAM FILES (X86)\WINDOWS KITS\10\INCLUDE\10.0.17134.0\UCRT\CORECRT_WCONIO.H
C:\PROGRAM FILES (X86)\WINDOWS KITS\10\INCLUDE\10.0.17134.0\UCRT\CORECRT_STDIO_CONFIG.H
C:\PROGRAM FILES (X86)\WINDOWS KITS\10\INCLUDE\10.0.17134.0\UCRT\CORECRT_WCTYPE.H
C:\PROGRAM FILES (X86)\WINDOWS KITS\10\INCLUDE\10.0.17134.0\UCRT\CORECRT_WDIRECT.H
C:\PROGRAM FILES (X86)\WINDOWS KITS\10\INCLUDE\10.0.17134.0\UCRT\CORECRT_WIO.H
C:\PROGRAM FILES (X86)\WINDOWS KITS\10\INCLUDE\10.0.17134.0\UCRT\CORECRT_SHARE.H
C:\PROGRAM FILES (X86)\WINDOWS KITS\10\INCLUDE\10.0.17134.0\UCRT\CORECRT_WPROCESS.H
C:\PROGRAM FILES (X86)\WINDOWS KITS\10\INCLUDE\10.0.17134.0\UCRT\CORECRT_WSTDIO.H
C:\PROGRAM FILES (X86)\WINDOWS KITS\10\INCLUDE\10.0.17134.0\UCRT\CORECRT_WTIME.H
C:\PROGRAM FILES (X86)\WINDOWS KITS\10\INCLUDE\10.0.17134.0\UCRT\SYS\STAT.H
C:\PROGRAM FILES (X86)\WINDOWS KITS\10\INCLUDE\10.0.17134.0\UCRT\SYS\TYPES.H
C:\USERS\MOHAMMAD\DOCUMENTS\VISUAL STUDIO 2015\LIBRARIES\GLM\GLM\DETAIL\TYPE_VEC4.INL
C:\USERS\MOHAMMAD\DOCUMENTS\VISUAL STUDIO 2015\LIBRARIES\GLM\GLM\DETAIL\TYPE_VEC4_SIMD.INL
C:\USERS\MOHAMMAD\DOCUMENTS\VISUAL STUDIO 2015\LIBRARIES\GLM\GLM\MAT4X4.HPP
C:\USERS\MOHAMMAD\DOCUMENTS\VISUAL STUDIO 2015\LIBRARIES\GLM\GLM\DETAIL\TYPE_MAT4X4.HPP
C:\USERS\MOHAMMAD\DOCUMENTS\VISUAL STUDIO 2015\LIBRARIES\GLM\GLM\FWD.HPP
C:\USERS\MOHAMMAD\DOCUMENTS\VISUAL STUDIO 2015\LIBRARIES\GLM\GLM\DETAIL\TYPE_FLOAT.HPP
C:\USERS\MOHAMMAD\DOCUMENTS\VISUAL STUDIO 2015\LIBRARIES\GLM\GLM\DETAIL\TYPE_MAT.HPP
C:\USERS\MOHAMMAD\DOCUMENTS\VISUAL STUDIO 2015\LIBRARIES\GLM\GLM\DETAIL\TYPE_MAT4X4.INL
C:\USERS\MOHAMMAD\DOCUMENTS\VISUAL STUDIO 2015\LIBRARIES\GLM\GLM\MATRIX.HPP
C:\USERS\MOHAMMAD\DOCUMENTS\VISUAL STUDIO 2015\LIBRARIES\GLM\GLM\VEC2.HPP
C:\USERS\MOHAMMAD\DOCUMENTS\VISUAL STUDIO 2015\LIBRARIES\GLM\GLM\DETAIL\TYPE_VEC2.HPP
C:\USERS\MOHAMMAD\DOCUMENTS\VISUAL STUDIO 2015\LIBRARIES\GLM\GLM\DETAIL\TYPE_VEC2.INL
C:\USERS\MOHAMMAD\DOCUMENTS\VISUAL STUDIO 2015\LIBRARIES\GLM\GLM\VEC3.HPP
C:\USERS\MOHAMMAD\DOCUMENTS\VISUAL STUDIO 2015\LIBRARIES\GLM\GLM\DETAIL\TYPE_VEC3.HPP
C:\USERS\MOHAMMAD\DOCUMENTS\VISUAL STUDIO 2015\LIBRARIES\GLM\GLM\DETAIL\TYPE_VEC3.INL
C:\USERS\MOHAMMAD\DOCUMENTS\VISUAL STUDIO 2015\LIBRARIES\GLM\GLM\MAT2X2.HPP
C:\USERS\MOHAMMAD\DOCUMENTS\VISUAL STUDIO 2015\LIBRARIES\GLM\GLM\DETAIL\TYPE_MAT2X2.HPP
C:\USERS\MOHAMMAD\DOCUMENTS\VISUAL STUDIO 2015\LIBRARIES\GLM\GLM\DETAIL\TYPE_MAT2X2.INL
C:\USERS\MOHAMMAD\DOCUMENTS\VISUAL STUDIO 2015\LIBRARIES\GLM\GLM\MAT2X3.HPP
C:\USERS\MOHAMMAD\DOCUMENTS\VISUAL STUDIO 2015\LIBRARIES\GLM\GLM\DETAIL\TYPE_MAT2X3.HPP
C:\USERS\MOHAMMAD\DOCUMENTS\VISUAL STUDIO 2015\LIBRARIES\GLM\GLM\DETAIL\TYPE_MAT2X3.INL
C:\USERS\MOHAMMAD\DOCUMENTS\VISUAL STUDIO 2015\LIBRARIES\GLM\GLM\MAT2X4.HPP
C:\USERS\MOHAMMAD\DOCUMENTS\VISUAL STUDIO 2015\LIBRARIES\GLM\GLM\DETAIL\TYPE_MAT2X4.HPP
C:\USERS\MOHAMMAD\DOCUMENTS\VISUAL STUDIO 2015\LIBRARIES\GLM\GLM\DETAIL\TYPE_MAT2X4.INL
C:\USERS\MOHAMMAD\DOCUMENTS\VISUAL STUDIO 2015\LIBRARIES\GLM\GLM\MAT3X2.HPP
C:\USERS\MOHAMMAD\DOCUMENTS\VISUAL STUDIO 2015\LIBRARIES\GLM\GLM\DETAIL\TYPE_MAT3X2.HPP
C:\USERS\MOHAMMAD\DOCUMENTS\VISUAL STUDIO 2015\LIBRARIES\GLM\GLM\DETAIL\TYPE_MAT3X2.INL
C:\USERS\MOHAMMAD\DOCUMENTS\VISUAL STUDIO 2015\LIBRARIES\GLM\GLM\MAT3X3.HPP
C:\USERS\MOHAMMAD\DOCUMENTS\VISUAL STUDIO 2015\LIBRARIES\GLM\GLM\DETAIL\TYPE_MAT3X3.HPP
C:\USERS\MOHAMMAD\DOCUMENTS\VISUAL STUDIO 2015\LIBRARIES\GLM\GLM\DETAIL\TYPE_MAT3X3.INL
C:\USERS\MOHAMMAD\DOCUMENTS\VISUAL STUDIO 2015\LIBRARIES\GLM\GLM\MAT3X4.HPP
C:\USERS\MOHAMMAD\DOCUMENTS\VISUAL STUDIO 2015\LIBRARIES\GLM\GLM\DETAIL\TYPE_MAT3X4.HPP
C:\USERS\MOHAMMAD\DOCUMENTS\VISUAL STUDIO 2015\LIBRARIES\GLM\GLM\DETAIL\TYPE_MAT3X4.INL
C:\USERS\MOHAMMAD\DOCUMENTS\VISUAL STUDIO 2015\LIBRARIES\GLM\GLM\MAT4X2.HPP
C:\USERS\MOHAMMAD\DOCUMENTS\VISUAL STUDIO 2015\LIBRARIES\GLM\GLM\DETAIL\TYPE_MAT4X2.HPP
C:\USERS\MOHAMMAD\DOCUMENTS\VISUAL STUDIO 2015\LIBRARIES\GLM\GLM\DETAIL\TYPE_MAT4X2.INL
C:\USERS\MOHAMMAD\DOCUMENTS\VISUAL STUDIO 2015\LIBRARIES\GLM\GLM\MAT4X3.HPP
C:\USERS\MOHAMMAD\DOCUMENTS\VISUAL STUDIO 2015\LIBRARIES\GLM\GLM\DETAIL\TYPE_MAT4X3.HPP
C:\USERS\MOHAMMAD\DOCUMENTS\VISUAL STUDIO 2015\LIBRARIES\GLM\GLM\DETAIL\TYPE_MAT4X3.INL
C:\USERS\MOHAMMAD\DOCUMENTS\VISUAL STUDIO 2015\LIBRARIES\GLM\GLM\DETAIL\FUNC_MATRIX.INL
C:\USERS\MOHAMMAD\DOCUMENTS\VISUAL STUDIO 2015\LIBRARIES\GLM\GLM\GEOMETRIC.HPP
C:\USERS\MOHAMMAD\DOCUMENTS\VISUAL STUDIO 2015\LIBRARIES\GLM\GLM\DETAIL\FUNC_GEOMETRIC.INL
C:\USERS\MOHAMMAD\DOCUMENTS\VISUAL STUDIO 2015\LIBRARIES\GLM\GLM\EXPONENTIAL.HPP
C:\USERS\MOHAMMAD\DOCUMENTS\VISUAL STUDIO 2015\LIBRARIES\GLM\GLM\DETAIL\TYPE_VEC1.HPP
C:\USERS\MOHAMMAD\DOCUMENTS\VISUAL STUDIO 2015\LIBRARIES\GLM\GLM\DETAIL\FUNC_EXPONENTIAL.INL
C:\USERS\MOHAMMAD\DOCUMENTS\VISUAL STUDIO 2015\LIBRARIES\GLM\GLM\VECTOR_RELATIONAL.HPP
C:\USERS\MOHAMMAD\DOCUMENTS\VISUAL STUDIO 2015\LIBRARIES\GLM\GLM\DETAIL\FUNC_VECTOR_RELATIONAL.INL
C:\USERS\MOHAMMAD\DOCUMENTS\VISUAL STUDIO 2015\LIBRARIES\GLM\GLM\DETAIL\FUNC_VECTOR_RELATIONAL_SIMD.INL
C:\USERS\MOHAMMAD\DOCUMENTS\VISUAL STUDIO 2015\LIBRARIES\GLM\GLM\DETAIL\_VECTORIZE.HPP
C:\USERS\MOHAMMAD\DOCUMENTS\VISUAL STUDIO 2015\LIBRARIES\GLM\GLM\DETAIL\FUNC_EXPONENTIAL_SIMD.INL
C:\USERS\MOHAMMAD\DOCUMENTS\VISUAL STUDIO 2015\LIBRARIES\GLM\GLM\SIMD\EXPONENTIAL.H
C:\USERS\MOHAMMAD\DOCUMENTS\VISUAL STUDIO 2015\LIBRARIES\GLM\GLM\COMMON.HPP
C:\USERS\MOHAMMAD\DOCUMENTS\VISUAL STUDIO 2015\LIBRARIES\GLM\GLM\DETAIL\_FIXES.HPP
C:\USERS\MOHAMMAD\DOCUMENTS\VISUAL STUDIO 2015\LIBRARIES\GLM\GLM\DETAIL\FUNC_COMMON.INL
C:\USERS\MOHAMMAD\DOCUMENTS\VISUAL STUDIO 2015\LIBRARIES\GLM\GLM\DETAIL\FUNC_COMMON_SIMD.INL
C:\USERS\MOHAMMAD\DOCUMENTS\VISUAL STUDIO 2015\LIBRARIES\GLM\GLM\SIMD\COMMON.H
D:\PROGRAM FILES (X86)\MICROSOFT VISUAL STUDIO\2017\COMMUNITY\VC\TOOLS\MSVC\14.14.26428\INCLUDE\IMMINTRIN.H
D:\PROGRAM FILES (X86)\MICROSOFT VISUAL STUDIO\2017\COMMUNITY\VC\TOOLS\MSVC\14.14.26428\INCLUDE\WMMINTRIN.H
D:\PROGRAM FILES (X86)\MICROSOFT VISUAL STUDIO\2017\COMMUNITY\VC\TOOLS\MSVC\14.14.26428\INCLUDE\NMMINTRIN.H
D:\PROGRAM FILES (X86)\MICROSOFT VISUAL STUDIO\2017\COMMUNITY\VC\TOOLS\MSVC\14.14.26428\INCLUDE\SMMINTRIN.H
D:\PROGRAM FILES (X86)\MICROSOFT VISUAL STUDIO\2017\COMMUNITY\VC\TOOLS\MSVC\14.14.26428\INCLUDE\TMMINTRIN.H
D:\PROGRAM FILES (X86)\MICROSOFT VISUAL STUDIO\2017\COMMUNITY\VC\TOOLS\MSVC\14.14.26428\INCLUDE\PMMINTRIN.H
D:\PROGRAM FILES (X86)\MICROSOFT VISUAL STUDIO\2017\COMMUNITY\VC\TOOLS\MSVC\14.14.26428\INCLUDE\ZMMINTRIN.H
C:\USERS\MOHAMMAD\DOCUMENTS\VISUAL STUDIO 2015\LIBRARIES\GLM\GLM\DETAIL\FUNC_GEOMETRIC_SIMD.INL
C:\USERS\MOHAMMAD\DOCUMENTS\VISUAL STUDIO 2015\LIBRARIES\GLM\GLM\SIMD\GEOMETRIC.H
C:\USERS\MOHAMMAD\DOCUMENTS\VISUAL STUDIO 2015\LIBRARIES\GLM\GLM\DETAIL\FUNC_MATRIX_SIMD.INL
C:\USERS\MOHAMMAD\DOCUMENTS\VISUAL STUDIO 2015\LIBRARIES\GLM\GLM\SIMD\MATRIX.H
C:\USERS\MOHAMMAD\DOCUMENTS\VISUAL STUDIO 2015\LIBRARIES\GLM\GLM\DETAIL\TYPE_MAT4X4_SIMD.INL
D:\PROGRAM FILES (X86)\MICROSOFT VISUAL STUDIO\2017\COMMUNITY\VC\TOOLS\MSVC\14.14.26428\INCLUDE\IOSTREAM
D:\PROGRAM FILES (X86)\MICROSOFT VISUAL STUDIO\2017\COMMUNITY\VC\TOOLS\MSVC\14.14.26428\INCLUDE\ISTREAM
D:\PROGRAM FILES (X86)\MICROSOFT VISUAL STUDIO\2017\COMMUNITY\VC\TOOLS\MSVC\14.14.26428\INCLUDE\OSTREAM
D:\PROGRAM FILES (X86)\MICROSOFT VISUAL STUDIO\2017\COMMUNITY\VC\TOOLS\MSVC\14.14.26428\INCLUDE\IOS
D:\PROGRAM FILES (X86)\MICROSOFT VISUAL STUDIO\2017\COMMUNITY\VC\TOOLS\MSVC\14.14.26428\INCLUDE\XLOCNUM
D:\PROGRAM FILES (X86)\MICROSOFT VISUAL STUDIO\2017\COMMUNITY\VC\TOOLS\MSVC\14.14.26428\INCLUDE\CSTDIO
C:\PROGRAM FILES (X86)\WINDOWS KITS\10\INCLUDE\10.0.17134.0\UCRT\STDIO.H
D:\PROGRAM FILES (X86)\MICROSOFT VISUAL STUDIO\2017\COMMUNITY\VC\TOOLS\MSVC\14.14.26428\INCLUDE\STREAMBUF
D:\PROGRAM FILES (X86)\MICROSOFT VISUAL STUDIO\2017\COMMUNITY\VC\TOOLS\MSVC\14.14.26428\INCLUDE\XIOSBASE
D:\PROGRAM FILES (X86)\MICROSOFT VISUAL STUDIO\2017\COMMUNITY\VC\TOOLS\MSVC\14.14.26428\INCLUDE\XLOCALE
D:\PROGRAM FILES (X86)\MICROSOFT VISUAL STUDIO\2017\COMMUNITY\VC\TOOLS\MSVC\14.14.26428\INCLUDE\STDEXCEPT
D:\PROGRAM FILES (X86)\MICROSOFT VISUAL STUDIO\2017\COMMUNITY\VC\TOOLS\MSVC\14.14.26428\INCLUDE\EXCEPTION
D:\PROGRAM FILES (X86)\MICROSOFT VISUAL STUDIO\2017\COMMUNITY\VC\TOOLS\MSVC\14.14.26428\INCLUDE\VCRUNTIME_EXCEPTION.H
D:\PROGRAM FILES (X86)\MICROSOFT VISUAL STUDIO\2017\COMMUNITY\VC\TOOLS\MSVC\14.14.26428\INCLUDE\EH.H
C:\PROGRAM FILES (X86)\WINDOWS KITS\10\INCLUDE\10.0.17134.0\UCRT\CORECRT_TERMINATE.H
D:\PROGRAM FILES (X86)\MICROSOFT VISUAL STUDIO\2017\COMMUNITY\VC\TOOLS\MSVC\14.14.26428\INCLUDE\XSTRING
D:\PROGRAM FILES (X86)\MICROSOFT VISUAL STUDIO\2017\COMMUNITY\VC\TOOLS\MSVC\14.14.26428\INCLUDE\XMEMORY0
D:\PROGRAM FILES (X86)\MICROSOFT VISUAL STUDIO\2017\COMMUNITY\VC\TOOLS\MSVC\14.14.26428\INCLUDE\NEW
D:\PROGRAM FILES (X86)\MICROSOFT VISUAL STUDIO\2017\COMMUNITY\VC\TOOLS\MSVC\14.14.26428\INCLUDE\VCRUNTIME_NEW.H
D:\PROGRAM FILES (X86)\MICROSOFT VISUAL STUDIO\2017\COMMUNITY\VC\TOOLS\MSVC\14.14.26428\INCLUDE\XUTILITY
D:\PROGRAM FILES (X86)\MICROSOFT VISUAL STUDIO\2017\COMMUNITY\VC\TOOLS\MSVC\14.14.26428\INCLUDE\UTILITY
D:\PROGRAM FILES (X86)\MICROSOFT VISUAL STUDIO\2017\COMMUNITY\VC\TOOLS\MSVC\14.14.26428\INCLUDE\IOSFWD
C:\PROGRAM FILES (X86)\WINDOWS KITS\10\INCLUDE\10.0.17134.0\UCRT\CRTDBG.H
D:\PROGRAM FILES (X86)\MICROSOFT VISUAL STUDIO\2017\COMMUNITY\VC\TOOLS\MSVC\14.14.26428\INCLUDE\VCRUNTIME_NEW_DEBUG.H
D:\PROGRAM FILES (X86)\MICROSOFT VISUAL STUDIO\2017\COMMUNITY\VC\TOOLS\MSVC\14.14.26428\INCLUDE\XATOMIC0.H
D:\PROGRAM FILES (X86)\MICROSOFT VISUAL STUDIO\2017\COMMUNITY\VC\TOOLS\MSVC\14.14.26428\INCLUDE\INTRIN0.H
D:\PROGRAM FILES (X86)\MICROSOFT VISUAL STUDIO\2017\COMMUNITY\VC\TOOLS\MSVC\14.14.26428\INCLUDE\TYPEINFO
D:\PROGRAM FILES (X86)\MICROSOFT VISUAL STUDIO\2017\COMMUNITY\VC\TOOLS\MSVC\14.14.26428\INCLUDE\VCRUNTIME_TYPEINFO.H
D:\PROGRAM FILES (X86)\MICROSOFT VISUAL STUDIO\2017\COMMUNITY\VC\TOOLS\MSVC\14.14.26428\INCLUDE\XLOCINFO
D:\PROGRAM FILES (X86)\MICROSOFT VISUAL STUDIO\2017\COMMUNITY\VC\TOOLS\MSVC\14.14.26428\INCLUDE\XLOCINFO.H
C:\PROGRAM FILES (X86)\WINDOWS KITS\10\INCLUDE\10.0.17134.0\UCRT\CTYPE.H
C:\PROGRAM FILES (X86)\WINDOWS KITS\10\INCLUDE\10.0.17134.0\UCRT\LOCALE.H
D:\PROGRAM FILES (X86)\MICROSOFT VISUAL STUDIO\2017\COMMUNITY\VC\TOOLS\MSVC\14.14.26428\INCLUDE\MEMORY
D:\PROGRAM FILES (X86)\MICROSOFT VISUAL STUDIO\2017\COMMUNITY\VC\TOOLS\MSVC\14.14.26428\INCLUDE\XMEMORY
D:\PROGRAM FILES (X86)\MICROSOFT VISUAL STUDIO\2017\COMMUNITY\VC\TOOLS\MSVC\14.14.26428\INCLUDE\XFACET
D:\PROGRAM FILES (X86)\MICROSOFT VISUAL STUDIO\2017\COMMUNITY\VC\TOOLS\MSVC\14.14.26428\INCLUDE\SYSTEM_ERROR
D:\PROGRAM FILES (X86)\MICROSOFT VISUAL STUDIO\2017\COMMUNITY\VC\TOOLS\MSVC\14.14.26428\INCLUDE\CERRNO
D:\PROGRAM FILES (X86)\MICROSOFT VISUAL STUDIO\2017\COMMUNITY\VC\TOOLS\MSVC\14.14.26428\INCLUDE\XCALL_ONCE.H
D:\PROGRAM FILES (X86)\MICROSOFT VISUAL STUDIO\2017\COMMUNITY\VC\TOOLS\MSVC\14.14.26428\INCLUDE\XERRC.H
C:\PROGRAM FILES (X86)\WINDOWS KITS\10\INCLUDE\10.0.17134.0\UCRT\SHARE.H
